{
    "dbURL" : "mongodb://ubccapstone:ubc1234@ds043324.mongolab.com:43324/ubccapstone",
    "message" : "You are running in prod. mode",
    "sessionSecret" : "devubccapstoneprojectpatternlyanalytic",
    "dbCollection" : "users",
     "mysql" : {
        "host" : "capstone.c6wwphtzkqy4.us-west-2.rds.amazonaws.com",
        "user" : "capstone",
        "password" : "stockcapstone",
        "database" : "capstone"
    },
    "redis":{
        "host": "ec2-54-227-250-102.compute-1.amazonaws.com",
        "port": 6709,
        "pass": "p6jrfl8oouif478bavv3kbd6m51",
        "URL" : "redis://h:p6jrfl8oouif478bavv3kbd6m51@ec2-54-227-250-102.compute-1.amazonaws.com:6709"
    }
}